<?xml version="1.0" encoding="UTF-8" standalone="no"?>
<!-- Generator: Adobe Illustrator 19.0.0, SVG Export Plug-In . SVG Version: 6.00 Build 0)  -->

<svg
   version="1.1"
   id="Capa_1"
   x="0px"
   y="0px"
   viewBox="0 0 502.987 502.987"
   style="enable-background:new 0 0 502.987 502.987;"
   xml:space="preserve"
   sodipodi:docname="add.svg"
   inkscape:version="1.1.2 (0a00cf5339, 2022-02-04, custom)"
   xmlns:inkscape="http://www.inkscape.org/namespaces/inkscape"
   xmlns:sodipodi="http://sodipodi.sourceforge.net/DTD/sodipodi-0.dtd"
   xmlns="http://www.w3.org/2000/svg"
   xmlns:svg="http://www.w3.org/2000/svg"><defs
   id="defs75" /><sodipodi:namedview
   id="namedview73"
   pagecolor="#ffffff"
   bordercolor="#666666"
   borderopacity="1.0"
   inkscape:pageshadow="2"
   inkscape:pageopacity="0.0"
   inkscape:pagecheckerboard="0"
   showgrid="false"
   inkscape:zoom="1.2525175"
   inkscape:cx="251.4935"
   inkscape:cy="251.4935"
   inkscape:window-width="2560"
   inkscape:window-height="1343"
   inkscape:window-x="0"
   inkscape:window-y="0"
   inkscape:window-maximized="1"
   inkscape:current-layer="Capa_1" />
<g
   id="g40"
   style="fill:#ffffff;fill-opacity:1">
	<g
   id="g8"
   style="fill:#ffffff;fill-opacity:1">
		<circle
   style="fill:#ffffff;fill-opacity:1"
   cx="185.994"
   cy="102.008"
   r="102.008"
   id="circle2" />
		<path
   style="fill:#ffffff;fill-opacity:1"
   d="M334.444,261.459c-13.244,0-25.95,2.243-37.9,6.191c-25.216-32.335-65.273-53.323-110.55-53.323    c-76.361,0.022-138.226,59.471-138.226,132.898v73.794h172.437c16.221,47.585,61.261,81.969,114.239,81.969    c66.611,0,120.775-54.186,120.775-120.775S401.055,261.459,334.444,261.459z M240.309,382.213    c0-51.899,42.236-94.156,94.135-94.156c51.942,0,94.178,42.257,94.178,94.156c0,51.921-42.236,94.156-94.178,94.156    C282.545,476.369,240.309,434.134,240.309,382.213z"
   id="path4" />
		<path
   style="fill:#ffffff;fill-opacity:1"
   d="M351.269,312.97h-29.983c-0.022,14.366,0,52.158,0,52.158s-32.529,0-48.621,0.043v29.962    c16.092-0.022,48.621-0.022,48.621-0.022s0,37.749-0.022,52.18h29.983c0.022-14.431,0.022-52.18,0.022-52.18s32.507,0,48.599,0    v-29.983c-16.092,0-48.599,0-48.599,0S351.226,327.337,351.269,312.97z"
   id="path6" />
	</g>
	<g
   id="g10"
   style="fill:#ffffff;fill-opacity:1">
	</g>
	<g
   id="g12"
   style="fill:#ffffff;fill-opacity:1">
	</g>
	<g
   id="g14"
   style="fill:#ffffff;fill-opacity:1">
	</g>
	<g
   id="g16"
   style="fill:#ffffff;fill-opacity:1">
	</g>
	<g
   id="g18"
   style="fill:#ffffff;fill-opacity:1">
	</g>
	<g
   id="g20"
   style="fill:#ffffff;fill-opacity:1">
	</g>
	<g
   id="g22"
   style="fill:#ffffff;fill-opacity:1">
	</g>
	<g
   id="g24"
   style="fill:#ffffff;fill-opacity:1">
	</g>
	<g
   id="g26"
   style="fill:#ffffff;fill-opacity:1">
	</g>
	<g
   id="g28"
   style="fill:#ffffff;fill-opacity:1">
	</g>
	<g
   id="g30"
   style="fill:#ffffff;fill-opacity:1">
	</g>
	<g
   id="g32"
   style="fill:#ffffff;fill-opacity:1">
	</g>
	<g
   id="g34"
   style="fill:#ffffff;fill-opacity:1">
	</g>
	<g
   id="g36"
   style="fill:#ffffff;fill-opacity:1">
	</g>
	<g
   id="g38"
   style="fill:#ffffff;fill-opacity:1">
	</g>
</g>
<g
   id="g42">
</g>
<g
   id="g44">
</g>
<g
   id="g46">
</g>
<g
   id="g48">
</g>
<g
   id="g50">
</g>
<g
   id="g52">
</g>
<g
   id="g54">
</g>
<g
   id="g56">
</g>
<g
   id="g58">
</g>
<g
   id="g60">
</g>
<g
   id="g62">
</g>
<g
   id="g64">
</g>
<g
   id="g66">
</g>
<g
   id="g68">
</g>
<g
   id="g70">
</g>
</svg>
