<?xml version="1.0" encoding="UTF-8" standalone="no"?>
<!-- Generator: Adobe Illustrator 19.0.0, SVG Export Plug-In . SVG Version: 6.00 Build 0)  -->

<svg
   version="1.1"
   id="Layer_1"
   x="0px"
   y="0px"
   viewBox="0 0 512.001 512.001"
   xml:space="preserve"
   sodipodi:docname="calculator.svg.svg"
   style="enable-background:new 0 0 512.001 512.001;"
   inkscape:version="1.1.2 (0a00cf5339, 2022-02-04, custom)"
   xmlns:inkscape="http://www.inkscape.org/namespaces/inkscape"
   xmlns:sodipodi="http://sodipodi.sourceforge.net/DTD/sodipodi-0.dtd"
   xmlns:xlink="http://www.w3.org/1999/xlink"
   xmlns="http://www.w3.org/2000/svg"
   xmlns:svg="http://www.w3.org/2000/svg"><defs
   id="defs107"><linearGradient
     inkscape:collect="always"
     id="linearGradient2142"><stop
       style="stop-color:#000000;stop-opacity:1;"
       offset="0"
       id="stop2138" /><stop
       style="stop-color:#000000;stop-opacity:0;"
       offset="1"
       id="stop2140" /></linearGradient><linearGradient
     inkscape:collect="always"
     xlink:href="#linearGradient2142"
     id="linearGradient2144"
     x1="129.894"
     y1="322.86499"
     x2="349.73701"
     y2="322.86499"
     gradientUnits="userSpaceOnUse" /></defs><sodipodi:namedview
   id="namedview105"
   pagecolor="#505050"
   bordercolor="#ffffff"
   borderopacity="1"
   inkscape:pageshadow="0"
   inkscape:pageopacity="0"
   inkscape:pagecheckerboard="1"
   showgrid="false"
   inkscape:zoom="1.2304664"
   inkscape:cx="273.06719"
   inkscape:cy="145.47329"
   inkscape:window-width="2560"
   inkscape:window-height="1343"
   inkscape:window-x="0"
   inkscape:window-y="0"
   inkscape:window-maximized="1"
   inkscape:current-layer="Layer_1" />
<path
   style="fill:#a0bf7d;fill-opacity:1"
   d="M433.8,39.869V472.13c0,16.766-13.598,30.363-30.363,30.363H108.572  c-16.778,0-30.376-13.598-30.376-30.363V39.869c0-16.766,13.598-30.363,30.376-30.363h294.865  C420.203,9.506,433.8,23.103,433.8,39.869z"
   id="path2" />
<path
   style="fill:#a0bf7d;fill-opacity:1"
   d="M113.679,472.13V39.869c0-16.766,13.598-30.363,30.376-30.363h-35.483  c-16.778,0-30.376,13.598-30.376,30.363V472.13c0,16.766,13.598,30.363,30.376,30.363h35.483  C127.277,502.493,113.679,488.895,113.679,472.13z"
   id="path4" />
<rect
   x="129.894"
   y="60.589"
   style="fill:#a0bf7d;fill-opacity:1"
   width="252.196"
   height="82.321"
   id="rect6" />
<g
   id="g24"
   style="fill:#a0bf7d;fill-opacity:1">
	<rect
   x="228.385"
   y="293.205"
   style="fill:#a0bf7d;fill-opacity:1"
   width="55.214"
   height="59.333"
   id="rect8" />
	<rect
   x="129.894"
   y="293.205"
   style="fill:#a0bf7d;fill-opacity:1"
   width="55.214"
   height="59.333"
   id="rect10" />
	<rect
   x="129.894"
   y="395.345"
   style="fill:#a0bf7d;fill-opacity:1"
   width="55.214"
   height="59.333"
   id="rect12" />
	<rect
   x="228.385"
   y="395.345"
   style="fill:#a0bf7d;fill-opacity:1"
   width="55.214"
   height="59.333"
   id="rect14" />
	<polygon
   style="fill:#a0bf7d;fill-opacity:1"
   points="382.096,413.595 382.096,454.68 326.882,454.68 326.882,413.595 326.882,395.347    326.882,293.206 382.096,293.206 382.096,395.347  "
   id="polygon16" />
	<rect
   x="326.876"
   y="191.051"
   style="fill:#a0bf7d;fill-opacity:1"
   width="55.214"
   height="59.346"
   id="rect18" />
	<rect
   x="228.385"
   y="191.051"
   style="fill:#a0bf7d;fill-opacity:1"
   width="55.214"
   height="59.346"
   id="rect20" />
	<rect
   x="129.894"
   y="191.051"
   style="fill:#a0bf7d;fill-opacity:1"
   width="55.214"
   height="59.346"
   id="rect22" />
</g>
<g
   id="g42"
   style="fill-opacity:1;fill:#a0bf7d">
	<rect
   x="129.894"
   y="293.205"
   style="fill:#a0bf7d;fill-opacity:1"
   width="22.861"
   height="59.333"
   id="rect26" />
	<rect
   x="129.894"
   y="395.345"
   style="fill:#a0bf7d;fill-opacity:1"
   width="22.861"
   height="59.333"
   id="rect28" />
	<rect
   x="129.894"
   y="191.051"
   style="fill:#a0bf7d;fill-opacity:1"
   width="22.861"
   height="59.346"
   id="rect30" />
	<rect
   x="228.385"
   y="293.205"
   style="fill:#a0bf7d;fill-opacity:1"
   width="22.861"
   height="59.333"
   id="rect32" />
	<rect
   x="228.385"
   y="395.345"
   style="fill:#a0bf7d;fill-opacity:1"
   width="22.861"
   height="59.333"
   id="rect34" />
	<rect
   x="228.385"
   y="191.051"
   style="fill:#a0bf7d;fill-opacity:1"
   width="22.861"
   height="59.346"
   id="rect36" />
	<rect
   x="326.876"
   y="293.205"
   style="fill:#a0bf7d;fill-opacity:1"
   width="22.861"
   height="161.474"
   id="rect38" />
	<rect
   x="326.876"
   y="191.051"
   style="fill:#a0bf7d;fill-opacity:1"
   width="22.861"
   height="59.346"
   id="rect40" />
</g>

<g
   id="g72">
	<path
   style="fill:#000000;fill-opacity:1"
   d="M403.432,0H108.57C86.583,0,68.695,17.887,68.695,39.874v432.253   c0,21.987,17.887,39.874,39.874,39.874h294.862c21.987,0,39.874-17.887,39.874-39.874V39.874C443.305,17.887,425.417,0,403.432,0z    M424.296,472.127c0,11.505-9.36,20.865-20.865,20.865H108.57c-11.505,0-20.865-9.36-20.865-20.865V39.874   c0-11.505,9.36-20.865,20.865-20.865h294.862c11.505,0,20.865,9.36,20.865,20.865v432.253H424.296z"
   id="path52" />
	<path
   style="fill:#000000;fill-opacity:1"
   d="M382.1,51.08H129.901c-5.25,0-9.504,4.255-9.504,9.504v82.322c0,5.249,4.254,9.504,9.504,9.504   H382.1c5.25,0,9.504-4.255,9.504-9.504V60.585C391.604,55.336,387.349,51.08,382.1,51.08z M372.596,133.403h-233.19V70.089h233.19   V133.403z"
   id="path54" />
	<path
   style="fill:#000000;fill-opacity:1"
   d="M185.115,181.553h-55.214c-5.25,0-9.504,4.255-9.504,9.504v59.335c0,5.249,4.254,9.504,9.504,9.504   h55.214c5.25,0,9.504-4.255,9.504-9.504v-59.335C194.62,185.809,190.366,181.553,185.115,181.553z M175.611,240.889h-36.205   v-40.327h36.205V240.889z"
   id="path56" />
	<path
   style="fill:#000000;fill-opacity:1"
   d="M185.115,283.697h-55.214c-5.25,0-9.504,4.255-9.504,9.504v59.335c0,5.249,4.254,9.504,9.504,9.504   h55.214c5.25,0,9.504-4.255,9.504-9.504v-59.335C194.62,287.952,190.366,283.697,185.115,283.697z M175.611,343.032h-36.205   v-40.327h36.205V343.032z"
   id="path58" />
	<path
   style="fill:#000000;fill-opacity:1"
   d="M185.115,385.84h-55.214c-5.25,0-9.504,4.255-9.504,9.504v59.335c0,5.249,4.254,9.504,9.504,9.504   h55.214c5.25,0,9.504-4.255,9.504-9.504v-59.335C194.62,390.095,190.366,385.84,185.115,385.84z M175.611,445.175h-36.205v-40.327   h36.205V445.175z"
   id="path60" />
	<path
   style="fill:#000000;fill-opacity:1"
   d="M283.608,181.553h-55.214c-5.25,0-9.504,4.255-9.504,9.504v59.335c0,5.249,4.254,9.504,9.504,9.504   h55.214c5.25,0,9.504-4.255,9.504-9.504v-59.335C293.112,185.809,288.857,181.553,283.608,181.553z M274.103,240.889h-36.205   v-40.327h36.205V240.889z"
   id="path62" />
	<path
   style="fill:#000000;fill-opacity:1"
   d="M283.608,283.697h-55.214c-5.25,0-9.504,4.255-9.504,9.504v59.335c0,5.249,4.254,9.504,9.504,9.504   h55.214c5.25,0,9.504-4.255,9.504-9.504v-59.335C293.112,287.952,288.857,283.697,283.608,283.697z M274.103,343.032h-36.205   v-40.327h36.205V343.032z"
   id="path64" />
	<path
   style="fill:#000000;fill-opacity:1"
   d="M283.608,385.84h-55.214c-5.25,0-9.504,4.255-9.504,9.504v59.335c0,5.249,4.254,9.504,9.504,9.504   h55.214c5.25,0,9.504-4.255,9.504-9.504v-59.335C293.112,390.095,288.857,385.84,283.608,385.84z M274.103,445.175h-36.205v-40.327   h36.205V445.175z"
   id="path66" />
	<path
   style="fill:#000000;fill-opacity:1"
   d="M382.1,181.553h-55.214c-5.25,0-9.504,4.255-9.504,9.504v59.335c0,5.249,4.254,9.504,9.504,9.504   H382.1c5.25,0,9.504-4.255,9.504-9.504v-59.335C391.604,185.809,387.349,181.553,382.1,181.553z M372.596,240.889H336.39v-40.327   h36.205V240.889z"
   id="path68" />
	<path
   style="fill:#000000;fill-opacity:1"
   d="M382.1,283.697h-55.214c-5.25,0-9.504,4.255-9.504,9.504V454.68c0,5.249,4.254,9.504,9.504,9.504   H382.1c5.25,0,9.504-4.255,9.504-9.504V293.201C391.604,287.952,387.349,283.697,382.1,283.697z M372.596,445.175H336.39v-142.47   h36.205V445.175z"
   id="path70" />
</g>
<g
   id="g74">
</g>
<g
   id="g76">
</g>
<g
   id="g78">
</g>
<g
   id="g80">
</g>
<g
   id="g82">
</g>
<g
   id="g84">
</g>
<g
   id="g86">
</g>
<g
   id="g88">
</g>
<g
   id="g90">
</g>
<g
   id="g92">
</g>
<g
   id="g94">
</g>
<g
   id="g96">
</g>
<g
   id="g98">
</g>
<g
   id="g100">
</g>
<g
   id="g102">
</g>
</svg>
