<?xml version="1.0" encoding="UTF-8" standalone="no"?>
<!-- Generator: Adobe Illustrator 19.0.0, SVG Export Plug-In . SVG Version: 6.00 Build 0)  -->

<svg
   version="1.1"
   id="Layer_1"
   x="0px"
   y="0px"
   viewBox="0 0 512 512"
   style="enable-background:new 0 0 512 512;"
   xml:space="preserve"
   xmlns:xlink="http://www.w3.org/1999/xlink"
   xmlns="http://www.w3.org/2000/svg"
   xmlns:svg="http://www.w3.org/2000/svg"><defs
   id="defs47"><linearGradient
     id="linearGradient1028"><stop
       style="stop-color:#000000;stop-opacity:1;"
       offset="0"
       id="stop1024" /><stop
       style="stop-color:#000000;stop-opacity:0;"
       offset="1"
       id="stop1026" /></linearGradient><linearGradient
     xlink:href="#linearGradient1028"
     id="linearGradient1030"
     x1="76.435"
     y1="256.0005"
     x2="435.564"
     y2="256.0005"
     gradientUnits="userSpaceOnUse" /></defs>
<path
   style="fill:#a0bf7c;fill-opacity:1"
   d="M401.188,228.095H110.812c-13.624,0-24.669,11.046-24.669,24.669v224.859  c0,13.625,11.046,24.671,24.669,24.671h290.376c13.625,0,24.669-11.046,24.669-24.669v-224.86  C425.858,239.14,414.812,228.095,401.188,228.095z"
   id="path2" />

<path
   style="fill:#a0bf7c;fill-opacity:1"
   d="M256,9.706L256,9.706c-70.358,0-127.393,57.036-127.393,127.393v90.995h60.663V137.1  c0-36.795,29.935-66.73,66.73-66.73s66.73,29.935,66.73,66.73v90.995h60.664V137.1C383.393,66.742,326.358,9.706,256,9.706z"
   id="path6" />
<g
   id="g12"
   style="fill-opacity:1;fill:#000000">
	<path
   style="fill:#000000;fill-opacity:1"
   d="M401.188,218.389H393.1V137.1C393.1,61.502,331.598,0,256,0S118.9,61.502,118.9,137.1v81.289h-8.089   c-18.955,0-34.376,15.421-34.376,34.376v224.86c0,18.955,15.421,34.376,34.376,34.376h290.376   c18.956,0,34.377-15.421,34.377-34.376v-224.86C435.564,233.809,420.143,218.389,401.188,218.389z M138.313,137.1   c0-64.893,52.794-117.687,117.687-117.687S373.687,72.207,373.687,137.1v81.289h-41.251V137.1   c0-42.147-34.289-76.436-76.436-76.436s-76.436,34.289-76.436,76.436v81.289h-41.251V137.1z M198.976,218.389V137.1   c0-31.443,25.581-57.024,57.024-57.024s57.024,25.581,57.024,57.024v81.289H198.976z M416.152,477.624   c0,8.251-6.713,14.963-14.963,14.963H110.812c-8.25,0-14.963-6.712-14.963-14.963v-224.86c0-8.251,6.713-14.963,14.963-14.963   h17.795h60.663h133.46h60.664h17.795c8.251,0,14.963,6.712,14.963,14.963V477.624z"
   id="path8" />
	
</g>
<g
   id="g14">
</g>
<g
   id="g16">
</g>
<g
   id="g18">
</g>
<g
   id="g20">
</g>
<g
   id="g22">
</g>
<g
   id="g24">
</g>
<g
   id="g26">
</g>
<g
   id="g28">
</g>
<g
   id="g30">
</g>
<g
   id="g32">
</g>
<g
   id="g34">
</g>
<g
   id="g36">
</g>
<g
   id="g38">
</g>
<g
   id="g40">
</g>
<g
   id="g42">
</g>
</svg>
