<?xml version="1.0" encoding="UTF-8" standalone="no"?>

<svg
   version="1.1"
   id="Layer_1"
   x="0px"
   y="0px"
   viewBox="0 0 496.158 496.158"
   style="enable-background:new 0 0 496.158 496.158;"
   xml:space="preserve"
   sodipodi:docname="question.svg"
   inkscape:version="1.1.1 (3bf5ae0d25, 2021-09-20, custom)"
   xmlns:inkscape="http://www.inkscape.org/namespaces/inkscape"
   xmlns:sodipodi="http://sodipodi.sourceforge.net/DTD/sodipodi-0.dtd"
   xmlns="http://www.w3.org/2000/svg"
   xmlns:svg="http://www.w3.org/2000/svg"><defs
   id="defs39" /><sodipodi:namedview
   id="namedview37"
   pagecolor="#ffffff"
   bordercolor="#666666"
   borderopacity="1.0"
   showgrid="false" />

<path
   style="fill:#ffffff;fill-opacity:1;stroke-width:1.48441"
   d="m 86.793311,137.20112 c 0,-20.65551 6.630842,-41.585642 19.895489,-62.785929 13.26019,-21.200286 32.61684,-38.75784 58.0566,-52.675631 25.44123,-13.913337 55.12193,-20.87371676 89.04209,-20.87371676 31.52582,0 59.3614,5.82035596 83.49784,17.44919276 24.13644,11.634774 42.77761,27.454089 55.93687,47.456459 13.15332,20.008309 19.7322,41.748925 19.7322,65.232235 0,18.48382 -3.75109,34.68611 -11.25328,48.59796 -7.50218,13.91779 -16.42049,25.93109 -26.74603,36.0399 -10.32997,10.11177 -28.86575,27.12751 -55.61029,51.04574 -7.39383,6.74218 -13.32254,12.66941 -17.77576,17.77726 -4.45916,5.1108 -7.77681,9.7852 -9.94849,14.02318 -2.17614,4.24095 -3.86391,8.48041 -5.05589,12.72136 -1.19791,4.23798 -2.99108,11.68969 -5.38097,22.34179 -4.13259,22.61642 -17.07215,33.92165 -38.81276,33.92165 -11.30821,0 -20.82326,-3.69469 -28.5392,-11.09 -7.72039,-7.39085 -11.57836,-18.37249 -11.57836,-32.94194 0,-18.26561 2.82334,-34.08493 8.48041,-47.45645 5.65262,-13.37451 13.15332,-25.11615 22.50508,-35.22497 9.34582,-10.11177 21.9603,-22.12357 37.83453,-36.04137 13.91335,-12.1751 23.97316,-21.36357 30.17056,-27.56097 6.19739,-6.19739 11.41508,-13.09691 15.65603,-20.71192 4.23947,-7.60906 6.36068,-15.86978 6.36068,-24.78809 0,-17.39427 -6.47201,-32.070595 -19.40713,-44.031939 -12.93956,-11.955407 -29.63022,-17.939047 -50.06604,-17.939047 -23.92269,0 -41.53516,6.034111 -52.83891,18.102331 -11.30821,12.068221 -20.87372,29.843985 -28.70248,53.327295 -7.39382,24.57434 -21.41998,36.85631 -42.07548,36.85631 -12.18104,0 -22.45462,-4.29141 -30.822203,-12.88316 -8.370565,-8.58877 -12.555106,-17.88412 -12.555106,-27.88753 z M 245.96021,494.67577 c -13.26613,0 -24.84449,-4.29735 -34.73658,-12.88464 -9.89653,-8.58581 -14.84109,-20.5991 -14.84109,-36.03989 0,-13.69959 4.77979,-25.22155 14.35124,-34.57331 9.56551,-9.3473 21.30716,-14.02466 35.22495,-14.02466 13.69959,0 25.22155,4.67736 34.5733,14.02466 9.34582,9.35176 14.02467,20.87372 14.02467,34.57331 0,15.22257 -4.8926,27.18244 -14.67781,35.87808 -9.7852,8.69566 -21.09043,13.04645 -33.91868,13.04645 z"
    />
</svg>
