<?xml version="1.0" encoding="UTF-8" standalone="no"?>
<svg
   width="24px"
   height="24px"
   viewBox="0 0 24 24"
   id="magicoon-Regular"
   version="1.1"
   sodipodi:docname="send.svg"
   inkscape:version="1.1.2 (0a00cf5339, 2022-02-04, custom)"
   xmlns:inkscape="http://www.inkscape.org/namespaces/inkscape"
   xmlns:sodipodi="http://sodipodi.sourceforge.net/DTD/sodipodi-0.dtd"
   xmlns="http://www.w3.org/2000/svg"
   xmlns:svg="http://www.w3.org/2000/svg"
   xmlns:rdf="http://www.w3.org/1999/02/22-rdf-syntax-ns#"
   xmlns:cc="http://creativecommons.org/ns#"
   xmlns:dc="http://purl.org/dc/elements/1.1/">
  <sodipodi:namedview
     id="namedview11"
     pagecolor="#ffffff"
     bordercolor="#666666"
     borderopacity="1.0"
     inkscape:pageshadow="2"
     inkscape:pageopacity="0.0"
     inkscape:pagecheckerboard="0"
     showgrid="false"
     inkscape:zoom="26.25"
     inkscape:cx="12"
     inkscape:cy="12"
     inkscape:window-width="2560"
     inkscape:window-height="1343"
     inkscape:window-x="0"
     inkscape:window-y="0"
     inkscape:window-maximized="1"
     inkscape:current-layer="send-Regular" />
  <defs
     id="defs4">
    <style
       id="style2">.cls-1{fill:#41416e;}</style>
  </defs>
  <title
     id="title6">send</title>
  <g
     id="send-Regular">
    <path
       id="send-Regular-2"
       data-name="send-Regular"
       class="cls-1"
       d="M20.927,3.073a2.782,2.782,0,0,0-2.663-.738L5.151,5.614A3.83,3.83,0,0,0,5.2,13.058l4.646,1.093L10.942,18.8a3.773,3.773,0,0,0,3.7,2.953h.028a3.773,3.773,0,0,0,3.714-2.9L21.665,5.735A2.781,2.781,0,0,0,20.927,3.073Zm-.718,2.3L16.931,18.484a2.3,2.3,0,0,1-2.277,1.766,2.274,2.274,0,0,1-2.252-1.8l-1.1-4.69L15.53,9.53a.75.75,0,0,0-1.06-1.06L10.237,12.7l-4.69-1.1a2.33,2.33,0,0,1-.031-4.529L18.628,3.791a1.313,1.313,0,0,1,.321-.04,1.3,1.3,0,0,1,1.26,1.621Z"
       style="fill:#ffffff;fill-opacity:1" />
  </g>
  <metadata
     id="metadata936">
    <rdf:RDF>
      <cc:Work
         rdf:about="">
        <dc:title>send</dc:title>
      </cc:Work>
    </rdf:RDF>
  </metadata>
</svg>
