{
  "v": "5.5.7",
  "fr": 29.9700012207031,
  "ip": 0,
  "op": 211.000008594206,
  "w": 500,
  "h": 500,
  "nm": "Comp 1",
  "ddd": 0,
  "assets": [],
  "layers": [
    {
      "ddd": 0,
      "ind": 1,
      "ty": 4,
      "nm": "dompet Outlines",
      "sr": 1,
      "ks": {
        "o": {"a": 0, "k": 100, "ix": 11},
        "r": {"a": 0, "k": 0, "ix": 10},
        "p": {"a": 0, "k": [250, 306, 0], "ix": 2},
        "a": {"a": 0, "k": [250, 250, 0], "ix": 1},
        "s": {
          "a": 1,
          "k": [
            {
              "i": {"x": [0.362, 0.362, 0.667], "y": [1, 1, 1]},
              "o": {"x": [0.167, 0.167, 0.167], "y": [0.167, 0.167, 13.333]},
              "t": 0,
              "s": [0, 0, 100],
              "e": [80, 80, 100]
            },
            {
              "i": {"x": [0.833, 0.833, 0.833], "y": [1, 1, 1]},
              "o": {"x": [0.333, 0.333, 0.333], "y": [0, 0, 0]},
              "t": 10,
              "s": [80, 80, 100],
              "e": [76, 76, 100]
            },
            {
              "i": {"x": [0.833, 0.833, 0.833], "y": [1, 1, 1]},
              "o": {"x": [0.167, 0.167, 0.167], "y": [0, 0, 0]},
              "t": 14,
              "s": [76, 76, 100],
              "e": [76, 76, 100]
            },
            {
              "i": {"x": [0.362, 0.362, 0.667], "y": [1, 1, 1]},
              "o": {"x": [0.167, 0.167, 0.167], "y": [0, 0, 0]},
              "t": 34,
              "s": [76, 76, 100],
              "e": [80, 80, 100]
            },
            {
              "i": {"x": [0.833, 0.833, 0.833], "y": [1, 1, 1]},
              "o": {"x": [0.333, 0.333, 0.333], "y": [0, 0, 0]},
              "t": 38,
              "s": [80, 80, 100],
              "e": [76, 76, 100]
            },
            {
              "i": {"x": [0.833, 0.833, 0.833], "y": [1, 1, 1]},
              "o": {"x": [0.167, 0.167, 0.167], "y": [0, 0, 0]},
              "t": 41,
              "s": [76, 76, 100],
              "e": [76, 76, 100]
            },
            {
              "i": {"x": [0.362, 0.362, 0.667], "y": [1, 1, 1]},
              "o": {"x": [0.167, 0.167, 0.167], "y": [0, 0, 0]},
              "t": 65,
              "s": [76, 76, 100],
              "e": [80, 80, 100]
            },
            {
              "i": {"x": [0.833, 0.833, 0.833], "y": [1, 1, 1]},
              "o": {"x": [0.333, 0.333, 0.333], "y": [0, 0, 0]},
              "t": 69,
              "s": [80, 80, 100],
              "e": [76, 76, 100]
            },
            {
              "i": {"x": [0.833, 0.833, 0.833], "y": [1, 1, 1]},
              "o": {"x": [0.167, 0.167, 0.167], "y": [0, 0, 0]},
              "t": 72,
              "s": [76, 76, 100],
              "e": [76, 76, 100]
            },
            {
              "i": {"x": [0.362, 0.362, 0.667], "y": [1, 1, 1]},
              "o": {"x": [0.167, 0.167, 0.167], "y": [0, 0, 0]},
              "t": 96,
              "s": [76, 76, 100],
              "e": [80, 80, 100]
            },
            {
              "i": {"x": [0.833, 0.833, 0.833], "y": [1, 1, 1]},
              "o": {"x": [0.333, 0.333, 0.333], "y": [0, 0, 0]},
              "t": 100,
              "s": [80, 80, 100],
              "e": [76, 76, 100]
            },
            {
              "i": {"x": [0.833, 0.833, 0.833], "y": [1, 1, 1]},
              "o": {"x": [0.167, 0.167, 0.167], "y": [0, 0, 0]},
              "t": 103,
              "s": [76, 76, 100],
              "e": [76, 76, 100]
            },
            {
              "i": {"x": [0.362, 0.362, 0.667], "y": [1, 1, 1]},
              "o": {"x": [0.167, 0.167, 0.167], "y": [0, 0, 0]},
              "t": 128,
              "s": [76, 76, 100],
              "e": [80, 80, 100]
            },
            {
              "i": {"x": [0.833, 0.833, 0.833], "y": [1, 1, 1]},
              "o": {"x": [0.333, 0.333, 0.333], "y": [0, 0, 0]},
              "t": 132,
              "s": [80, 80, 100],
              "e": [76, 76, 100]
            },
            {
              "i": {"x": [0.833, 0.833, 0.833], "y": [1, 1, 1]},
              "o": {"x": [0.167, 0.167, 0.167], "y": [0, 0, 0]},
              "t": 135,
              "s": [76, 76, 100],
              "e": [76, 76, 100]
            },
            {
              "i": {"x": [0.362, 0.362, 0.667], "y": [1, 1, 1]},
              "o": {"x": [0.167, 0.167, 0.167], "y": [0, 0, 0]},
              "t": 158,
              "s": [76, 76, 100],
              "e": [80, 80, 100]
            },
            {
              "i": {"x": [0.833, 0.833, 0.833], "y": [1, 1, 1]},
              "o": {"x": [0.333, 0.333, 0.333], "y": [0, 0, 0]},
              "t": 162,
              "s": [80, 80, 100],
              "e": [76, 76, 100]
            },
            {
              "i": {"x": [0.833, 0.833, 0.833], "y": [1, 1, 1]},
              "o": {"x": [0.167, 0.167, 0.167], "y": [0, 0, 0]},
              "t": 165,
              "s": [76, 76, 100],
              "e": [76, 76, 100]
            },
            {
              "i": {"x": [0.362, 0.362, 0.667], "y": [1, 1, 1]},
              "o": {"x": [0.167, 0.167, 0.167], "y": [0, 0, 0]},
              "t": 189,
              "s": [76, 76, 100],
              "e": [80, 80, 100]
            },
            {
              "i": {"x": [0.833, 0.833, 0.833], "y": [1, 1, 1]},
              "o": {"x": [0.333, 0.333, 0.333], "y": [0, 0, 0]},
              "t": 193,
              "s": [80, 80, 100],
              "e": [76, 76, 100]
            },
            {"t": 196.000007983244}
          ],
          "ix": 6
        }
      },
      "ao": 0,
      "shapes": [
        {
          "ty": "gr",
          "it": [
            {
              "ind": 0,
              "ty": "sh",
              "ix": 1,
              "ks": {
                "a": 0,
                "k": {
                  "i": [
                    [0, 0],
                    [0, 0],
                    [0, 0],
                    [0, 0]
                  ],
                  "o": [
                    [0, 0],
                    [0, 0],
                    [0, 0],
                    [0, 0]
                  ],
                  "v": [
                    [22.5, 76],
                    [-22.5, 76],
                    [-22.5, -76],
                    [22.5, -76]
                  ],
                  "c": true
                },
                "ix": 2
              },
              "nm": "Path 1",
              "mn": "ADBE Vector Shape - Group",
              "hd": false
            },
            {
              "ty": "fl",
              "c": {
                "a": 0,
                "k": [0.776000019148, 0.611999990426, 0.426999978458, 1],
                "ix": 4
              },
              "o": {"a": 0, "k": 100, "ix": 5},
              "r": 1,
              "bm": 0,
              "nm": "Fill 1",
              "mn": "ADBE Vector Graphic - Fill",
              "hd": false
            },
            {
              "ty": "tr",
              "p": {"a": 0, "k": [176.5, 261], "ix": 2},
              "a": {"a": 0, "k": [0, 0], "ix": 1},
              "s": {"a": 0, "k": [100, 100], "ix": 3},
              "r": {"a": 0, "k": 0, "ix": 6},
              "o": {"a": 0, "k": 100, "ix": 7},
              "sk": {"a": 0, "k": 0, "ix": 4},
              "sa": {"a": 0, "k": 0, "ix": 5},
              "nm": "Transform"
            }
          ],
          "nm": "Group 1",
          "np": 2,
          "cix": 2,
          "bm": 0,
          "ix": 1,
          "mn": "ADBE Vector Group",
          "hd": false
        },
        {
          "ty": "gr",
          "it": [
            {
              "ind": 0,
              "ty": "sh",
              "ix": 1,
              "ks": {
                "a": 0,
                "k": {
                  "i": [
                    [0, 0],
                    [0, 0],
                    [0, 0],
                    [0, 0]
                  ],
                  "o": [
                    [0, 0],
                    [0, 0],
                    [0, 0],
                    [0, 0]
                  ],
                  "v": [
                    [22.5, 76],
                    [-22.5, 76],
                    [-22.5, -76],
                    [22.5, -76]
                  ],
                  "c": true
                },
                "ix": 2
              },
              "nm": "Path 1",
              "mn": "ADBE Vector Shape - Group",
              "hd": false
            },
            {
              "ty": "fl",
              "c": {
                "a": 0,
                "k": [0.626999978458, 0.490000017952, 0.361000001197, 1],
                "ix": 4
              },
              "o": {"a": 0, "k": 100, "ix": 5},
              "r": 1,
              "bm": 0,
              "nm": "Fill 1",
              "mn": "ADBE Vector Graphic - Fill",
              "hd": false
            },
            {
              "ty": "tr",
              "p": {"a": 0, "k": [176.5, 240], "ix": 2},
              "a": {"a": 0, "k": [0, 0], "ix": 1},
              "s": {"a": 0, "k": [100, 100], "ix": 3},
              "r": {"a": 0, "k": 0, "ix": 6},
              "o": {"a": 0, "k": 100, "ix": 7},
              "sk": {"a": 0, "k": 0, "ix": 4},
              "sa": {"a": 0, "k": 0, "ix": 5},
              "nm": "Transform"
            }
          ],
          "nm": "Group 2",
          "np": 2,
          "cix": 2,
          "bm": 0,
          "ix": 2,
          "mn": "ADBE Vector Group",
          "hd": false
        },
        {
          "ty": "gr",
          "it": [
            {
              "ind": 0,
              "ty": "sh",
              "ix": 1,
              "ks": {
                "a": 0,
                "k": {
                  "i": [
                    [13.393, 0],
                    [0, 0],
                    [0, 13.393],
                    [0, 0],
                    [-13.393, 0],
                    [0, -13.393],
                    [0, 0]
                  ],
                  "o": [
                    [0, 0],
                    [-13.393, 0],
                    [0, 0],
                    [0, -13.393],
                    [13.393, 0],
                    [0, 0],
                    [0, 13.393]
                  ],
                  "v": [
                    [0, 76],
                    [0, 76],
                    [-24.25, 51.75],
                    [-24.25, -51.75],
                    [0, -76],
                    [24.25, -51.75],
                    [24.25, 51.75]
                  ],
                  "c": true
                },
                "ix": 2
              },
              "nm": "Path 1",
              "mn": "ADBE Vector Shape - Group",
              "hd": false
            },
            {
              "ty": "fl",
              "c": {
                "a": 0,
                "k": [0.709999952129, 0.560999971278, 0.411999990426, 1],
                "ix": 4
              },
              "o": {"a": 0, "k": 100, "ix": 5},
              "r": 1,
              "bm": 0,
              "nm": "Fill 1",
              "mn": "ADBE Vector Graphic - Fill",
              "hd": false
            },
            {
              "ty": "tr",
              "p": {"a": 0, "k": [154.25, 261], "ix": 2},
              "a": {"a": 0, "k": [0, 0], "ix": 1},
              "s": {"a": 0, "k": [100, 100], "ix": 3},
              "r": {"a": 0, "k": 0, "ix": 6},
              "o": {"a": 0, "k": 100, "ix": 7},
              "sk": {"a": 0, "k": 0, "ix": 4},
              "sa": {"a": 0, "k": 0, "ix": 5},
              "nm": "Transform"
            }
          ],
          "nm": "Group 3",
          "np": 2,
          "cix": 2,
          "bm": 0,
          "ix": 3,
          "mn": "ADBE Vector Group",
          "hd": false
        },
        {
          "ty": "gr",
          "it": [
            {
              "ind": 0,
              "ty": "sh",
              "ix": 1,
              "ks": {
                "a": 0,
                "k": {
                  "i": [
                    [13.393, 0],
                    [0, 0],
                    [0, 13.393],
                    [0, 0],
                    [-13.393, 0],
                    [0, -13.393],
                    [0, 0]
                  ],
                  "o": [
                    [0, 0],
                    [-13.393, 0],
                    [0, 0],
                    [0, -13.393],
                    [13.393, 0],
                    [0, 0],
                    [0, 13.393]
                  ],
                  "v": [
                    [0, 76],
                    [0, 76],
                    [-24.25, 51.75],
                    [-24.25, -51.75],
                    [0, -76],
                    [24.25, -51.75],
                    [24.25, 51.75]
                  ],
                  "c": true
                },
                "ix": 2
              },
              "nm": "Path 1",
              "mn": "ADBE Vector Shape - Group",
              "hd": false
            },
            {
              "ty": "fl",
              "c": {
                "a": 0,
                "k": [0.569000004787, 0.442999985639, 0.337000020345, 1],
                "ix": 4
              },
              "o": {"a": 0, "k": 100, "ix": 5},
              "r": 1,
              "bm": 0,
              "nm": "Fill 1",
              "mn": "ADBE Vector Graphic - Fill",
              "hd": false
            },
            {
              "ty": "tr",
              "p": {"a": 0, "k": [154.25, 240], "ix": 2},
              "a": {"a": 0, "k": [0, 0], "ix": 1},
              "s": {"a": 0, "k": [100, 100], "ix": 3},
              "r": {"a": 0, "k": 0, "ix": 6},
              "o": {"a": 0, "k": 100, "ix": 7},
              "sk": {"a": 0, "k": 0, "ix": 4},
              "sa": {"a": 0, "k": 0, "ix": 5},
              "nm": "Transform"
            }
          ],
          "nm": "Group 4",
          "np": 2,
          "cix": 2,
          "bm": 0,
          "ix": 4,
          "mn": "ADBE Vector Group",
          "hd": false
        },
        {
          "ty": "gr",
          "it": [
            {
              "ind": 0,
              "ty": "sh",
              "ix": 1,
              "ks": {
                "a": 0,
                "k": {
                  "i": [
                    [0, -10.112],
                    [10.113, 0],
                    [0, 10.112],
                    [-10.111, 0]
                  ],
                  "o": [
                    [0, 10.112],
                    [-10.111, 0],
                    [0, -10.112],
                    [10.113, 0]
                  ],
                  "v": [
                    [18.309, -0.001],
                    [-0.001, 18.309],
                    [-18.309, -0.001],
                    [-0.001, -18.31]
                  ],
                  "c": true
                },
                "ix": 2
              },
              "nm": "Path 1",
              "mn": "ADBE Vector Shape - Group",
              "hd": false
            },
            {
              "ty": "fl",
              "c": {
                "a": 0,
                "k": [0.948999980852, 0.905999995213, 0.866999966491, 1],
                "ix": 4
              },
              "o": {"a": 0, "k": 100, "ix": 5},
              "r": 1,
              "bm": 0,
              "nm": "Fill 1",
              "mn": "ADBE Vector Graphic - Fill",
              "hd": false
            },
            {
              "ty": "tr",
              "p": {"a": 0, "k": [295.619, 258.186], "ix": 2},
              "a": {"a": 0, "k": [0, 0], "ix": 1},
              "s": {"a": 0, "k": [100, 100], "ix": 3},
              "r": {"a": 0, "k": 0, "ix": 6},
              "o": {"a": 0, "k": 100, "ix": 7},
              "sk": {"a": 0, "k": 0, "ix": 4},
              "sa": {"a": 0, "k": 0, "ix": 5},
              "nm": "Transform"
            }
          ],
          "nm": "Group 5",
          "np": 2,
          "cix": 2,
          "bm": 0,
          "ix": 5,
          "mn": "ADBE Vector Group",
          "hd": false
        },
        {
          "ty": "gr",
          "it": [
            {
              "ind": 0,
              "ty": "sh",
              "ix": 1,
              "ks": {
                "a": 0,
                "k": {
                  "i": [
                    [11.598, 0],
                    [0, 0],
                    [0, 11.599],
                    [0, 0],
                    [-11.598, 0],
                    [0, 0],
                    [0, -11.598],
                    [0, 0]
                  ],
                  "o": [
                    [0, 0],
                    [-11.598, 0],
                    [0, 0],
                    [0, -11.598],
                    [0, 0],
                    [11.598, 0],
                    [0, 0],
                    [0, 11.599]
                  ],
                  "v": [
                    [34.5, 32.613],
                    [-34.5, 32.613],
                    [-55.5, 11.613],
                    [-55.5, -11.613],
                    [-34.5, -32.613],
                    [34.5, -32.613],
                    [55.5, -11.613],
                    [55.5, 11.613]
                  ],
                  "c": true
                },
                "ix": 2
              },
              "nm": "Path 1",
              "mn": "ADBE Vector Shape - Group",
              "hd": false
            },
            {
              "ty": "fl",
              "c": {
                "a": 0,
                "k": [0.877999997606, 0.741000007181, 0.607999973671, 1],
                "ix": 4
              },
              "o": {"a": 0, "k": 100, "ix": 5},
              "r": 1,
              "bm": 0,
              "nm": "Fill 1",
              "mn": "ADBE Vector Graphic - Fill",
              "hd": false
            },
            {
              "ty": "tr",
              "p": {"a": 0, "k": [314.5, 257.613], "ix": 2},
              "a": {"a": 0, "k": [0, 0], "ix": 1},
              "s": {"a": 0, "k": [100, 100], "ix": 3},
              "r": {"a": 0, "k": 0, "ix": 6},
              "o": {"a": 0, "k": 100, "ix": 7},
              "sk": {"a": 0, "k": 0, "ix": 4},
              "sa": {"a": 0, "k": 0, "ix": 5},
              "nm": "Transform"
            }
          ],
          "nm": "Group 6",
          "np": 2,
          "cix": 2,
          "bm": 0,
          "ix": 6,
          "mn": "ADBE Vector Group",
          "hd": false
        },
        {
          "ty": "gr",
          "it": [
            {
              "ind": 0,
              "ty": "sh",
              "ix": 1,
              "ks": {
                "a": 0,
                "k": {
                  "i": [
                    [13.393, 0],
                    [0, 0],
                    [0, 13.393],
                    [0, 0],
                    [-13.393, 0],
                    [0, 0],
                    [0, -13.393],
                    [0, 0]
                  ],
                  "o": [
                    [0, 0],
                    [-13.393, 0],
                    [0, 0],
                    [0, -13.393],
                    [0, 0],
                    [13.393, 0],
                    [0, 0],
                    [0, 13.393]
                  ],
                  "v": [
                    [84.5, 76],
                    [-84.5, 76],
                    [-108.75, 51.75],
                    [-108.75, -51.75],
                    [-84.5, -76],
                    [84.5, -76],
                    [108.75, -51.75],
                    [108.75, 51.75]
                  ],
                  "c": true
                },
                "ix": 2
              },
              "nm": "Path 1",
              "mn": "ADBE Vector Shape - Group",
              "hd": false
            },
            {
              "ty": "fl",
              "c": {
                "a": 0,
                "k": [0.776000019148, 0.611999990426, 0.426999978458, 1],
                "ix": 4
              },
              "o": {"a": 0, "k": 100, "ix": 5},
              "r": 1,
              "bm": 0,
              "nm": "Fill 1",
              "mn": "ADBE Vector Graphic - Fill",
              "hd": false
            },
            {
              "ty": "tr",
              "p": {"a": 0, "k": [238.75, 261], "ix": 2},
              "a": {"a": 0, "k": [0, 0], "ix": 1},
              "s": {"a": 0, "k": [100, 100], "ix": 3},
              "r": {"a": 0, "k": 0, "ix": 6},
              "o": {"a": 0, "k": 100, "ix": 7},
              "sk": {"a": 0, "k": 0, "ix": 4},
              "sa": {"a": 0, "k": 0, "ix": 5},
              "nm": "Transform"
            }
          ],
          "nm": "Group 7",
          "np": 2,
          "cix": 2,
          "bm": 0,
          "ix": 7,
          "mn": "ADBE Vector Group",
          "hd": false
        },
        {
          "ty": "gr",
          "it": [
            {
              "ind": 0,
              "ty": "sh",
              "ix": 1,
              "ks": {
                "a": 0,
                "k": {
                  "i": [
                    [13.393, 0],
                    [0, 0],
                    [0, 13.393],
                    [0, 0],
                    [-13.393, 0],
                    [0, 0],
                    [0, -13.393],
                    [0, 0]
                  ],
                  "o": [
                    [0, 0],
                    [-13.393, 0],
                    [0, 0],
                    [0, -13.393],
                    [0, 0],
                    [13.393, 0],
                    [0, 0],
                    [0, 13.393]
                  ],
                  "v": [
                    [84.25, 76.325],
                    [-84.25, 76.325],
                    [-108.5, 52.075],
                    [-108.5, -52.075],
                    [-84.25, -76.325],
                    [84.25, -76.325],
                    [108.5, -52.075],
                    [108.5, 52.075]
                  ],
                  "c": true
                },
                "ix": 2
              },
              "nm": "Path 1",
              "mn": "ADBE Vector Shape - Group",
              "hd": false
            },
            {
              "ty": "fl",
              "c": {
                "a": 0,
                "k": [0.626999978458, 0.490000017952, 0.361000001197, 1],
                "ix": 4
              },
              "o": {"a": 0, "k": 100, "ix": 5},
              "r": 1,
              "bm": 0,
              "nm": "Fill 1",
              "mn": "ADBE Vector Graphic - Fill",
              "hd": false
            },
            {
              "ty": "tr",
              "p": {"a": 0, "k": [238.5, 240.325], "ix": 2},
              "a": {"a": 0, "k": [0, 0], "ix": 1},
              "s": {"a": 0, "k": [100, 100], "ix": 3},
              "r": {"a": 0, "k": 0, "ix": 6},
              "o": {"a": 0, "k": 100, "ix": 7},
              "sk": {"a": 0, "k": 0, "ix": 4},
              "sa": {"a": 0, "k": 0, "ix": 5},
              "nm": "Transform"
            }
          ],
          "nm": "Group 8",
          "np": 2,
          "cix": 2,
          "bm": 0,
          "ix": 8,
          "mn": "ADBE Vector Group",
          "hd": false
        }
      ],
      "ip": 0,
      "op": 211.000008594206,
      "st": 0,
      "bm": 0
    },
    {
      "ddd": 0,
      "ind": 2,
      "ty": 4,
      "nm": "Shape Layer 11",
      "sr": 1,
      "ks": {
        "o": {"a": 0, "k": 100, "ix": 11},
        "r": {"a": 0, "k": 0, "ix": 10},
        "p": {
          "a": 1,
          "k": [
            {
              "i": {"x": 0.833, "y": 0.833},
              "o": {"x": 0.333, "y": 0},
              "t": 181,
              "s": [244, 159, 0],
              "e": [244, 301, 0],
              "to": [0, 23.667, 0],
              "ti": [0, -23.667, 0]
            },
            {"t": 190.000007738859}
          ],
          "ix": 2
        },
        "a": {"a": 0, "k": [-39, -51, 0], "ix": 1},
        "s": {
          "a": 1,
          "k": [
            {
              "i": {"x": [0.667, 0.667, 0.667], "y": [1, 1, 1]},
              "o": {"x": [0.167, 0.167, 0.167], "y": [0.167, 0.167, 18.333]},
              "t": 166,
              "s": [0, 0, 100],
              "e": [110, 110, 100]
            },
            {
              "i": {"x": [0.357, 0.357, 0.667], "y": [1, 1, 1]},
              "o": {"x": [0.333, 0.333, 0.333], "y": [0, 0, 0]},
              "t": 174,
              "s": [110, 110, 100],
              "e": [100, 100, 100]
            },
            {"t": 178.000007250089}
          ],
          "ix": 6
        }
      },
      "ao": 0,
      "shapes": [
        {
          "ty": "gr",
          "it": [
            {
              "d": 1,
              "ty": "el",
              "s": {"a": 0, "k": [57.576, 57.576], "ix": 2},
              "p": {"a": 0, "k": [0, 0], "ix": 3},
              "nm": "Ellipse Path 1",
              "mn": "ADBE Vector Shape - Ellipse",
              "hd": false
            },
            {
              "ty": "st",
              "c": {"a": 0, "k": [1, 1, 1, 1], "ix": 3},
              "o": {"a": 0, "k": 100, "ix": 4},
              "w": {"a": 0, "k": 0, "ix": 5},
              "lc": 1,
              "lj": 1,
              "ml": 4,
              "bm": 0,
              "nm": "Stroke 1",
              "mn": "ADBE Vector Graphic - Stroke",
              "hd": false
            },
            {
              "ty": "fl",
              "c": {"a": 0, "k": [1, 0.738823325961, 0, 1], "ix": 4},
              "o": {"a": 0, "k": 100, "ix": 5},
              "r": 1,
              "bm": 0,
              "nm": "Fill 1",
              "mn": "ADBE Vector Graphic - Fill",
              "hd": false
            },
            {
              "ty": "tr",
              "p": {"a": 0, "k": [-38.384, -51.515], "ix": 2},
              "a": {"a": 0, "k": [0, 0], "ix": 1},
              "s": {"a": 0, "k": [100, 100], "ix": 3},
              "r": {"a": 0, "k": 0, "ix": 6},
              "o": {"a": 0, "k": 100, "ix": 7},
              "sk": {"a": 0, "k": 0, "ix": 4},
              "sa": {"a": 0, "k": 0, "ix": 5},
              "nm": "Transform"
            }
          ],
          "nm": "Ellipse 1",
          "np": 3,
          "cix": 2,
          "bm": 0,
          "ix": 1,
          "mn": "ADBE Vector Group",
          "hd": false
        }
      ],
      "ip": 166.000006761319,
      "op": 211.000008594206,
      "st": 155.000006313279,
      "bm": 0
    },
    {
      "ddd": 0,
      "ind": 3,
      "ty": 4,
      "nm": "Shape Layer 10",
      "sr": 1,
      "ks": {
        "o": {"a": 0, "k": 100, "ix": 11},
        "r": {"a": 0, "k": 0, "ix": 10},
        "p": {
          "a": 1,
          "k": [
            {
              "i": {"x": 0.833, "y": 0.833},
              "o": {"x": 0.333, "y": 0},
              "t": 150,
              "s": [244, 159, 0],
              "e": [244, 301, 0],
              "to": [0, 23.667, 0],
              "ti": [0, -23.667, 0]
            },
            {"t": 159.000006476203}
          ],
          "ix": 2
        },
        "a": {"a": 0, "k": [-39, -51, 0], "ix": 1},
        "s": {
          "a": 1,
          "k": [
            {
              "i": {"x": [0.667, 0.667, 0.667], "y": [1, 1, 1]},
              "o": {"x": [0.167, 0.167, 0.167], "y": [0.167, 0.167, 18.333]},
              "t": 135,
              "s": [0, 0, 100],
              "e": [110, 110, 100]
            },
            {
              "i": {"x": [0.357, 0.357, 0.667], "y": [1, 1, 1]},
              "o": {"x": [0.333, 0.333, 0.333], "y": [0, 0, 0]},
              "t": 143,
              "s": [110, 110, 100],
              "e": [100, 100, 100]
            },
            {"t": 147.000005987433}
          ],
          "ix": 6
        }
      },
      "ao": 0,
      "shapes": [
        {
          "ty": "gr",
          "it": [
            {
              "d": 1,
              "ty": "el",
              "s": {"a": 0, "k": [57.576, 57.576], "ix": 2},
              "p": {"a": 0, "k": [0, 0], "ix": 3},
              "nm": "Ellipse Path 1",
              "mn": "ADBE Vector Shape - Ellipse",
              "hd": false
            },
            {
              "ty": "st",
              "c": {"a": 0, "k": [1, 1, 1, 1], "ix": 3},
              "o": {"a": 0, "k": 100, "ix": 4},
              "w": {"a": 0, "k": 0, "ix": 5},
              "lc": 1,
              "lj": 1,
              "ml": 4,
              "bm": 0,
              "nm": "Stroke 1",
              "mn": "ADBE Vector Graphic - Stroke",
              "hd": false
            },
            {
              "ty": "fl",
              "c": {"a": 0, "k": [1, 0.738823325961, 0, 1], "ix": 4},
              "o": {"a": 0, "k": 100, "ix": 5},
              "r": 1,
              "bm": 0,
              "nm": "Fill 1",
              "mn": "ADBE Vector Graphic - Fill",
              "hd": false
            },
            {
              "ty": "tr",
              "p": {"a": 0, "k": [-38.384, -51.515], "ix": 2},
              "a": {"a": 0, "k": [0, 0], "ix": 1},
              "s": {"a": 0, "k": [100, 100], "ix": 3},
              "r": {"a": 0, "k": 0, "ix": 6},
              "o": {"a": 0, "k": 100, "ix": 7},
              "sk": {"a": 0, "k": 0, "ix": 4},
              "sa": {"a": 0, "k": 0, "ix": 5},
              "nm": "Transform"
            }
          ],
          "nm": "Ellipse 1",
          "np": 3,
          "cix": 2,
          "bm": 0,
          "ix": 1,
          "mn": "ADBE Vector Group",
          "hd": false
        }
      ],
      "ip": 135.000005498663,
      "op": 211.000008594206,
      "st": 124.000005050624,
      "bm": 0
    },
    {
      "ddd": 0,
      "ind": 4,
      "ty": 4,
      "nm": "Shape Layer 9",
      "sr": 1,
      "ks": {
        "o": {"a": 0, "k": 100, "ix": 11},
        "r": {"a": 0, "k": 0, "ix": 10},
        "p": {
          "a": 1,
          "k": [
            {
              "i": {"x": 0.833, "y": 0.833},
              "o": {"x": 0.333, "y": 0},
              "t": 119,
              "s": [244, 159, 0],
              "e": [244, 301, 0],
              "to": [0, 23.667, 0],
              "ti": [0, -23.667, 0]
            },
            {"t": 128.000005213547}
          ],
          "ix": 2
        },
        "a": {"a": 0, "k": [-39, -51, 0], "ix": 1},
        "s": {
          "a": 1,
          "k": [
            {
              "i": {"x": [0.667, 0.667, 0.667], "y": [1, 1, 1]},
              "o": {"x": [0.167, 0.167, 0.167], "y": [0.167, 0.167, 18.333]},
              "t": 104,
              "s": [0, 0, 100],
              "e": [110, 110, 100]
            },
            {
              "i": {"x": [0.357, 0.357, 0.667], "y": [1, 1, 1]},
              "o": {"x": [0.333, 0.333, 0.333], "y": [0, 0, 0]},
              "t": 112,
              "s": [110, 110, 100],
              "e": [100, 100, 100]
            },
            {"t": 116.000004724777}
          ],
          "ix": 6
        }
      },
      "ao": 0,
      "shapes": [
        {
          "ty": "gr",
          "it": [
            {
              "d": 1,
              "ty": "el",
              "s": {"a": 0, "k": [57.576, 57.576], "ix": 2},
              "p": {"a": 0, "k": [0, 0], "ix": 3},
              "nm": "Ellipse Path 1",
              "mn": "ADBE Vector Shape - Ellipse",
              "hd": false
            },
            {
              "ty": "st",
              "c": {"a": 0, "k": [1, 1, 1, 1], "ix": 3},
              "o": {"a": 0, "k": 100, "ix": 4},
              "w": {"a": 0, "k": 0, "ix": 5},
              "lc": 1,
              "lj": 1,
              "ml": 4,
              "bm": 0,
              "nm": "Stroke 1",
              "mn": "ADBE Vector Graphic - Stroke",
              "hd": false
            },
            {
              "ty": "fl",
              "c": {"a": 0, "k": [1, 0.738823325961, 0, 1], "ix": 4},
              "o": {"a": 0, "k": 100, "ix": 5},
              "r": 1,
              "bm": 0,
              "nm": "Fill 1",
              "mn": "ADBE Vector Graphic - Fill",
              "hd": false
            },
            {
              "ty": "tr",
              "p": {"a": 0, "k": [-38.384, -51.515], "ix": 2},
              "a": {"a": 0, "k": [0, 0], "ix": 1},
              "s": {"a": 0, "k": [100, 100], "ix": 3},
              "r": {"a": 0, "k": 0, "ix": 6},
              "o": {"a": 0, "k": 100, "ix": 7},
              "sk": {"a": 0, "k": 0, "ix": 4},
              "sa": {"a": 0, "k": 0, "ix": 5},
              "nm": "Transform"
            }
          ],
          "nm": "Ellipse 1",
          "np": 3,
          "cix": 2,
          "bm": 0,
          "ix": 1,
          "mn": "ADBE Vector Group",
          "hd": false
        }
      ],
      "ip": 104.000004236007,
      "op": 211.000008594206,
      "st": 93.0000037879676,
      "bm": 0
    },
    {
      "ddd": 0,
      "ind": 5,
      "ty": 4,
      "nm": "Shape Layer 8",
      "sr": 1,
      "ks": {
        "o": {"a": 0, "k": 100, "ix": 11},
        "r": {"a": 0, "k": 0, "ix": 10},
        "p": {
          "a": 1,
          "k": [
            {
              "i": {"x": 0.833, "y": 0.833},
              "o": {"x": 0.333, "y": 0},
              "t": 88,
              "s": [244, 159, 0],
              "e": [244, 301, 0],
              "to": [0, 23.667, 0],
              "ti": [0, -23.667, 0]
            },
            {"t": 97.000003950891}
          ],
          "ix": 2
        },
        "a": {"a": 0, "k": [-39, -51, 0], "ix": 1},
        "s": {
          "a": 1,
          "k": [
            {
              "i": {"x": [0.667, 0.667, 0.667], "y": [1, 1, 1]},
              "o": {"x": [0.167, 0.167, 0.167], "y": [0.167, 0.167, 18.333]},
              "t": 73,
              "s": [0, 0, 100],
              "e": [110, 110, 100]
            },
            {
              "i": {"x": [0.357, 0.357, 0.667], "y": [1, 1, 1]},
              "o": {"x": [0.333, 0.333, 0.333], "y": [0, 0, 0]},
              "t": 81,
              "s": [110, 110, 100],
              "e": [100, 100, 100]
            },
            {"t": 85.000003462121}
          ],
          "ix": 6
        }
      },
      "ao": 0,
      "shapes": [
        {
          "ty": "gr",
          "it": [
            {
              "d": 1,
              "ty": "el",
              "s": {"a": 0, "k": [57.576, 57.576], "ix": 2},
              "p": {"a": 0, "k": [0, 0], "ix": 3},
              "nm": "Ellipse Path 1",
              "mn": "ADBE Vector Shape - Ellipse",
              "hd": false
            },
            {
              "ty": "st",
              "c": {"a": 0, "k": [1, 1, 1, 1], "ix": 3},
              "o": {"a": 0, "k": 100, "ix": 4},
              "w": {"a": 0, "k": 0, "ix": 5},
              "lc": 1,
              "lj": 1,
              "ml": 4,
              "bm": 0,
              "nm": "Stroke 1",
              "mn": "ADBE Vector Graphic - Stroke",
              "hd": false
            },
            {
              "ty": "fl",
              "c": {"a": 0, "k": [1, 0.738823325961, 0, 1], "ix": 4},
              "o": {"a": 0, "k": 100, "ix": 5},
              "r": 1,
              "bm": 0,
              "nm": "Fill 1",
              "mn": "ADBE Vector Graphic - Fill",
              "hd": false
            },
            {
              "ty": "tr",
              "p": {"a": 0, "k": [-38.384, -51.515], "ix": 2},
              "a": {"a": 0, "k": [0, 0], "ix": 1},
              "s": {"a": 0, "k": [100, 100], "ix": 3},
              "r": {"a": 0, "k": 0, "ix": 6},
              "o": {"a": 0, "k": 100, "ix": 7},
              "sk": {"a": 0, "k": 0, "ix": 4},
              "sa": {"a": 0, "k": 0, "ix": 5},
              "nm": "Transform"
            }
          ],
          "nm": "Ellipse 1",
          "np": 3,
          "cix": 2,
          "bm": 0,
          "ix": 1,
          "mn": "ADBE Vector Group",
          "hd": false
        }
      ],
      "ip": 73.000002973351,
      "op": 211.000008594206,
      "st": 62.0000025253118,
      "bm": 0
    },
    {
      "ddd": 0,
      "ind": 6,
      "ty": 4,
      "nm": "Shape Layer 6",
      "sr": 1,
      "ks": {
        "o": {"a": 0, "k": 100, "ix": 11},
        "r": {"a": 0, "k": 0, "ix": 10},
        "p": {
          "a": 1,
          "k": [
            {
              "i": {"x": 0.833, "y": 0.833},
              "o": {"x": 0.333, "y": 0},
              "t": 57,
              "s": [244, 159, 0],
              "e": [244, 301, 0],
              "to": [0, 23.667, 0],
              "ti": [0, -23.667, 0]
            },
            {"t": 66.0000026882351}
          ],
          "ix": 2
        },
        "a": {"a": 0, "k": [-39, -51, 0], "ix": 1},
        "s": {
          "a": 1,
          "k": [
            {
              "i": {"x": [0.667, 0.667, 0.667], "y": [1, 1, 1]},
              "o": {"x": [0.167, 0.167, 0.167], "y": [0.167, 0.167, 18.333]},
              "t": 42,
              "s": [0, 0, 100],
              "e": [110, 110, 100]
            },
            {
              "i": {"x": [0.357, 0.357, 0.667], "y": [1, 1, 1]},
              "o": {"x": [0.333, 0.333, 0.333], "y": [0, 0, 0]},
              "t": 50,
              "s": [110, 110, 100],
              "e": [100, 100, 100]
            },
            {"t": 54.0000021994651}
          ],
          "ix": 6
        }
      },
      "ao": 0,
      "shapes": [
        {
          "ty": "gr",
          "it": [
            {
              "d": 1,
              "ty": "el",
              "s": {"a": 0, "k": [57.576, 57.576], "ix": 2},
              "p": {"a": 0, "k": [0, 0], "ix": 3},
              "nm": "Ellipse Path 1",
              "mn": "ADBE Vector Shape - Ellipse",
              "hd": false
            },
            {
              "ty": "st",
              "c": {"a": 0, "k": [1, 1, 1, 1], "ix": 3},
              "o": {"a": 0, "k": 100, "ix": 4},
              "w": {"a": 0, "k": 0, "ix": 5},
              "lc": 1,
              "lj": 1,
              "ml": 4,
              "bm": 0,
              "nm": "Stroke 1",
              "mn": "ADBE Vector Graphic - Stroke",
              "hd": false
            },
            {
              "ty": "fl",
              "c": {"a": 0, "k": [1, 0.738823325961, 0, 1], "ix": 4},
              "o": {"a": 0, "k": 100, "ix": 5},
              "r": 1,
              "bm": 0,
              "nm": "Fill 1",
              "mn": "ADBE Vector Graphic - Fill",
              "hd": false
            },
            {
              "ty": "tr",
              "p": {"a": 0, "k": [-38.384, -51.515], "ix": 2},
              "a": {"a": 0, "k": [0, 0], "ix": 1},
              "s": {"a": 0, "k": [100, 100], "ix": 3},
              "r": {"a": 0, "k": 0, "ix": 6},
              "o": {"a": 0, "k": 100, "ix": 7},
              "sk": {"a": 0, "k": 0, "ix": 4},
              "sa": {"a": 0, "k": 0, "ix": 5},
              "nm": "Transform"
            }
          ],
          "nm": "Ellipse 1",
          "np": 3,
          "cix": 2,
          "bm": 0,
          "ix": 1,
          "mn": "ADBE Vector Group",
          "hd": false
        }
      ],
      "ip": 42.0000017106951,
      "op": 211.000008594206,
      "st": 31.0000012626559,
      "bm": 0
    },
    {
      "ddd": 0,
      "ind": 7,
      "ty": 4,
      "nm": "Shape Layer 5",
      "sr": 1,
      "ks": {
        "o": {"a": 0, "k": 100, "ix": 11},
        "r": {"a": 0, "k": 0, "ix": 10},
        "p": {
          "a": 1,
          "k": [
            {
              "i": {"x": 0.833, "y": 0.833},
              "o": {"x": 0.333, "y": 0},
              "t": 26,
              "s": [244, 159, 0],
              "e": [244, 301, 0],
              "to": [0, 23.667, 0],
              "ti": [0, -23.667, 0]
            },
            {"t": 35.0000014255792}
          ],
          "ix": 2
        },
        "a": {"a": 0, "k": [-39, -51, 0], "ix": 1},
        "s": {
          "a": 1,
          "k": [
            {
              "i": {"x": [0.667, 0.667, 0.667], "y": [1, 1, 1]},
              "o": {"x": [0.167, 0.167, 0.167], "y": [0.167, 0.167, 18.333]},
              "t": 11,
              "s": [0, 0, 100],
              "e": [110, 110, 100]
            },
            {
              "i": {"x": [0.357, 0.357, 0.667], "y": [1, 1, 1]},
              "o": {"x": [0.333, 0.333, 0.333], "y": [0, 0, 0]},
              "t": 19,
              "s": [110, 110, 100],
              "e": [100, 100, 100]
            },
            {"t": 23.0000009368092}
          ],
          "ix": 6
        }
      },
      "ao": 0,
      "shapes": [
        {
          "ty": "gr",
          "it": [
            {
              "d": 1,
              "ty": "el",
              "s": {"a": 0, "k": [57.576, 57.576], "ix": 2},
              "p": {"a": 0, "k": [0, 0], "ix": 3},
              "nm": "Ellipse Path 1",
              "mn": "ADBE Vector Shape - Ellipse",
              "hd": false
            },
            {
              "ty": "st",
              "c": {"a": 0, "k": [1, 1, 1, 1], "ix": 3},
              "o": {"a": 0, "k": 100, "ix": 4},
              "w": {"a": 0, "k": 0, "ix": 5},
              "lc": 1,
              "lj": 1,
              "ml": 4,
              "bm": 0,
              "nm": "Stroke 1",
              "mn": "ADBE Vector Graphic - Stroke",
              "hd": false
            },
            {
              "ty": "fl",
              "c": {"a": 0, "k": [1, 0.738823325961, 0, 1], "ix": 4},
              "o": {"a": 0, "k": 100, "ix": 5},
              "r": 1,
              "bm": 0,
              "nm": "Fill 1",
              "mn": "ADBE Vector Graphic - Fill",
              "hd": false
            },
            {
              "ty": "tr",
              "p": {"a": 0, "k": [-38.384, -51.515], "ix": 2},
              "a": {"a": 0, "k": [0, 0], "ix": 1},
              "s": {"a": 0, "k": [100, 100], "ix": 3},
              "r": {"a": 0, "k": 0, "ix": 6},
              "o": {"a": 0, "k": 100, "ix": 7},
              "sk": {"a": 0, "k": 0, "ix": 4},
              "sa": {"a": 0, "k": 0, "ix": 5},
              "nm": "Transform"
            }
          ],
          "nm": "Ellipse 1",
          "np": 3,
          "cix": 2,
          "bm": 0,
          "ix": 1,
          "mn": "ADBE Vector Group",
          "hd": false
        }
      ],
      "ip": 11.0000004480392,
      "op": 211.000008594206,
      "st": 0,
      "bm": 0
    }
  ],
  "markers": []
}